1 2 3 1 1
4 5 6 2 3
7 5 2 4 5
1 2 3 4 5
3 4 5 6 7

4 7 3 6 7  
2 4 7 3 6
2 3 3 3 1
5 3 9 0 1
6 4 9 3 0

1 2 3 4 7
3 2 6 1 5
7 9 2 8 0
6 3 1 5 0
3 6 8 3 1

6 5 4 0 5
2 4 7 7 9
4 4 5 2 8
4 8 3 1 8
4 6 5 1 0 
