         34	         33	         29	         27	         34	
         77	         79	         75	         64	         80	
         60	         77	         92	         71	         87	
         49	         55	         58	         63	         77	
         81	         91	         96	         97	        119	

        108	        111	        187	         75	         79	
         81	         84	        136	         63	         48	
         41	         48	         72	         33	         38	
         50	         78	         72	         69	         62	
         65	         94	        100	         75	         78	

         73	         87	         81	         71	         24	
         72	         97	         74	         82	         36	
         96	         74	         87	         93	         94	
         52	         42	         43	         60	         57	
         98	        105	         72	        100	         52	

         82	         96	        104	         48	        107	
        112	        164	        137	         58	        158	
         92	        120	        115	         48	        112	
         88	        120	        130	         71	        124	
         60	         72	         86	         53	        122	

